{
  "mazes": [
    {
      "id": 1,
      "name": "Pacman Maze",
      "linktag": "pacman",
      "mazeArray": [
        [
          201,
          212,
          212,
          212,
          212,
          212,
          212,
          212,
          212,
          212,
          212,
          212,
          212,
          223,
          223,
          212,
          212,
          212,
          212,
          212,
          212,
          212,
          212,
          212,
          212,
          212,
          212,
          202
        ],
        [
          211,
          31,
          31,
          31,
          31,
          31,
          31,
          31,
          31,
          31,
          31,
          31,
          31,
          225,
          224,
          31,
          31,
          31,
          31,
          31,
          31,
          31,
          31,
          31,
          31,
          31,
          31,
          211
        ],
        [
          211,
          31,
          201,
          212,
          212,
          202,
          31,
          201,
          212,
          212,
          212,
          202,
          31,
          225,
          224,
          31,
          201,
          212,
          212,
          212,
          202,
          31,
          201,
          212,
          212,
          202,
          31,
          211
        ],
        [
          211,
          32,
          211,
          0,
          0,
          211,
          31,
          211,
          0,
          0,
          0,
          211,
          31,
          225,
          224,
          31,
          211,
          0,
          0,
          0,
          211,
          31,
          211,
          0,
          0,
          211,
          32,
          211
        ],
        [
          211,
          31,
          203,
          212,
          212,
          204,
          31,
          203,
          212,
          212,
          212,
          204,
          31,
          203,
          204,
          31,
          203,
          212,
          212,
          212,
          204,
          31,
          203,
          212,
          212,
          204,
          31,
          211
        ],
        [
          211,
          31,
          31,
          31,
          31,
          31,
          31,
          31,
          31,
          31,
          31,
          31,
          31,
          31,
          31,
          31,
          31,
          31,
          31,
          31,
          31,
          31,
          31,
          31,
          31,
          31,
          31,
          211
        ],
        [
          211,
          31,
          201,
          223,
          223,
          202,
          31,
          201,
          202,
          31,
          201,
          223,
          223,
          223,
          223,
          223,
          223,
          202,
          31,
          201,
          202,
          31,
          201,
          223,
          223,
          202,
          31,
          211
        ],
        [
          211,
          31,
          203,
          222,
          222,
          204,
          31,
          225,
          224,
          31,
          203,
          222,
          222,
          221,
          221,
          222,
          222,
          204,
          31,
          225,
          224,
          31,
          203,
          222,
          222,
          204,
          31,
          211
        ],
        [
          211,
          31,
          31,
          31,
          31,
          31,
          31,
          225,
          224,
          31,
          31,
          31,
          31,
          225,
          224,
          31,
          31,
          31,
          31,
          225,
          224,
          31,
          31,
          31,
          31,
          31,
          31,
          211
        ],
        [
          203,
          212,
          212,
          212,
          212,
          202,
          31,
          225,
          221,
          223,
          223,
          202,
          0,
          225,
          224,
          0,
          201,
          223,
          223,
          221,
          224,
          31,
          201,
          212,
          212,
          212,
          212,
          204
        ],
        [
          0,
          0,
          0,
          0,
          0,
          211,
          31,
          225,
          221,
          222,
          222,
          204,
          0,
          203,
          204,
          0,
          203,
          222,
          222,
          221,
          224,
          31,
          211,
          0,
          0,
          0,
          0,
          0
        ],
        [
          0,
          0,
          0,
          0,
          0,
          211,
          31,
          225,
          224,
          0,
          0,
          0,
          0,
          0,
          0,
          0,
          0,
          0,
          0,
          225,
          224,
          31,
          211,
          0,
          0,
          0,
          0,
          0
        ],
        [
          0,
          0,
          0,
          0,
          0,
          211,
          31,
          225,
          224,
          0,
          201,
          212,
          208,
          123,
          124,
          207,
          212,
          202,
          0,
          225,
          224,
          31,
          211,
          0,
          0,
          0,
          0,
          0
        ],
        [
          212,
          212,
          212,
          212,
          212,
          204,
          31,
          203,
          204,
          0,
          211,
          125,
          121,
          173,
          174,
          121,
          126,
          211,
          0,
          203,
          204,
          31,
          203,
          212,
          212,
          212,
          212,
          212
        ],
        [
          61,
          0,
          0,
          0,
          0,
          0,
          31,
          0,
          0,
          0,
          211,
          123,
          21,
          22,
          23,
          24,
          124,
          211,
          0,
          0,
          0,
          31,
          0,
          0,
          0,
          0,
          0,
          61
        ],
        [
          212,
          212,
          212,
          212,
          212,
          202,
          31,
          201,
          202,
          0,
          211,
          127,
          122,
          122,
          122,
          122,
          128,
          211,
          0,
          201,
          202,
          31,
          201,
          212,
          212,
          212,
          212,
          212
        ],
        [
          0,
          0,
          0,
          0,
          0,
          211,
          31,
          225,
          224,
          0,
          203,
          212,
          212,
          212,
          212,
          212,
          212,
          204,
          0,
          225,
          224,
          31,
          211,
          0,
          0,
          0,
          0,
          0
        ],
        [
          0,
          0,
          0,
          0,
          0,
          211,
          31,
          225,
          224,
          0,
          0,
          0,
          0,
          0,
          0,
          0,
          0,
          0,
          0,
          225,
          224,
          31,
          211,
          0,
          0,
          0,
          0,
          0
        ],
        [
          0,
          0,
          0,
          0,
          0,
          211,
          31,
          225,
          224,
          0,
          201,
          223,
          223,
          223,
          223,
          223,
          223,
          202,
          0,
          225,
          224,
          31,
          211,
          0,
          0,
          0,
          0,
          0
        ],
        [
          201,
          212,
          212,
          212,
          212,
          204,
          31,
          203,
          204,
          0,
          203,
          222,
          222,
          221,
          221,
          222,
          222,
          204,
          0,
          203,
          204,
          31,
          203,
          212,
          212,
          212,
          212,
          202
        ],
        [
          211,
          31,
          31,
          31,
          31,
          31,
          31,
          31,
          31,
          31,
          31,
          31,
          31,
          225,
          224,
          31,
          31,
          31,
          31,
          31,
          31,
          31,
          31,
          31,
          31,
          31,
          31,
          211
        ],
        [
          211,
          31,
          201,
          223,
          223,
          202,
          31,
          201,
          223,
          223,
          223,
          202,
          31,
          225,
          224,
          31,
          201,
          223,
          223,
          223,
          202,
          31,
          201,
          223,
          223,
          202,
          31,
          211
        ],
        [
          211,
          31,
          203,
          222,
          221,
          224,
          31,
          203,
          222,
          222,
          222,
          204,
          31,
          203,
          204,
          31,
          203,
          222,
          222,
          222,
          204,
          31,
          225,
          221,
          222,
          204,
          31,
          211
        ],
        [
          211,
          32,
          31,
          31,
          225,
          224,
          31,
          31,
          31,
          31,
          31,
          31,
          31,
          1,
          0,
          31,
          31,
          31,
          31,
          31,
          31,
          31,
          225,
          224,
          31,
          31,
          32,
          211
        ],
        [
          225,
          223,
          202,
          31,
          225,
          224,
          31,
          201,
          202,
          31,
          201,
          223,
          223,
          223,
          223,
          223,
          223,
          202,
          31,
          201,
          202,
          31,
          225,
          224,
          31,
          201,
          223,
          224
        ],
        [
          225,
          222,
          204,
          31,
          203,
          204,
          31,
          225,
          224,
          31,
          203,
          222,
          222,
          221,
          221,
          222,
          222,
          204,
          31,
          225,
          224,
          31,
          203,
          204,
          31,
          203,
          222,
          224
        ],
        [
          211,
          31,
          31,
          31,
          31,
          31,
          31,
          225,
          224,
          31,
          31,
          31,
          31,
          225,
          224,
          31,
          31,
          31,
          31,
          225,
          224,
          31,
          31,
          31,
          31,
          31,
          31,
          211
        ],
        [
          211,
          31,
          201,
          223,
          223,
          223,
          223,
          221,
          221,
          223,
          223,
          202,
          31,
          225,
          224,
          31,
          201,
          223,
          223,
          221,
          221,
          223,
          223,
          223,
          223,
          202,
          31,
          211
        ],
        [
          211,
          31,
          203,
          222,
          222,
          222,
          222,
          222,
          222,
          222,
          222,
          204,
          31,
          203,
          204,
          31,
          203,
          222,
          222,
          222,
          222,
          222,
          222,
          222,
          222,
          204,
          31,
          211
        ],
        [
          211,
          31,
          31,
          31,
          31,
          31,
          31,
          31,
          31,
          31,
          31,
          31,
          31,
          31,
          31,
          31,
          31,
          31,
          31,
          31,
          31,
          31,
          31,
          31,
          31,
          31,
          31,
          211
        ],
        [
          203,
          212,
          212,
          212,
          212,
          212,
          212,
          212,
          212,
          212,
          212,
          212,
          212,
          212,
          212,
          212,
          212,
          212,
          212,
          212,
          212,
          212,
          212,
          212,
          212,
          212,
          212,
          204
        ]
      ]
    },
    {
      "id": 2,
      "name": "Fenix Office Maze",
      "linktag": "fenixoffice",
      "mazeArray": [
        [
          0,
          0,
          0,
          0,
          0,
          0,
          0,
          0,
          0,
          0,
          0,
          0,
          0,
          0,
          0,
          0,
          0,
          0,
          0,
          0,
          0,
          0,
          201,
          212,
          212,
          212,
          212,
          202,
          60,
          201,
          212,
          212,
          212,
          212,
          202
        ],
        [
          0,
          0,
          0,
          0,
          0,
          0,
          0,
          0,
          0,
          0,
          0,
          0,
          0,
          0,
          0,
          0,
          0,
          0,
          0,
          0,
          0,
          0,
          211,
          0,
          0,
          0,
          0,
          211,
          0,
          206,
          0,
          0,
          0,
          0,
          211
        ],
        [
          0,
          0,
          0,
          0,
          0,
          0,
          0,
          0,
          0,
          0,
          0,
          0,
          0,
          0,
          0,
          0,
          0,
          0,
          0,
          0,
          0,
          0,
          211,
          0,
          32,
          0,
          0,
          211,
          0,
          0,
          0,
          207,
          212,
          212,
          224
        ],
        [
          0,
          0,
          0,
          0,
          0,
          0,
          0,
          0,
          0,
          0,
          0,
          0,
          0,
          0,
          0,
          0,
          0,
          0,
          0,
          0,
          0,
          0,
          211,
          0,
          0,
          0,
          0,
          211,
          0,
          205,
          0,
          0,
          0,
          0,
          211
        ],
        [
          0,
          0,
          0,
          0,
          0,
          0,
          0,
          0,
          0,
          0,
          0,
          0,
          0,
          0,
          0,
          0,
          0,
          0,
          0,
          0,
          0,
          0,
          211,
          0,
          0,
          0,
          0,
          211,
          0,
          216,
          0,
          207,
          212,
          212,
          224
        ],
        [
          0,
          0,
          0,
          0,
          0,
          0,
          0,
          0,
          0,
          0,
          0,
          0,
          0,
          0,
          0,
          0,
          0,
          0,
          0,
          0,
          0,
          0,
          211,
          0,
          0,
          0,
          0,
          206,
          0,
          206,
          0,
          0,
          0,
          0,
          211
        ],
        [
          0,
          0,
          0,
          0,
          0,
          0,
          0,
          0,
          0,
          0,
          0,
          0,
          0,
          0,
          0,
          0,
          0,
          0,
          0,
          0,
          0,
          0,
          211,
          0,
          0,
          0,
          0,
          0,
          0,
          0,
          0,
          207,
          212,
          212,
          224
        ],
        [
          0,
          0,
          0,
          0,
          0,
          0,
          0,
          0,
          0,
          0,
          0,
          0,
          0,
          0,
          0,
          0,
          0,
          0,
          0,
          0,
          0,
          0,
          211,
          0,
          0,
          0,
          0,
          205,
          0,
          205,
          0,
          0,
          0,
          0,
          211
        ],
        [
          0,
          0,
          0,
          0,
          0,
          0,
          0,
          0,
          0,
          0,
          0,
          0,
          0,
          0,
          0,
          0,
          0,
          0,
          0,
          0,
          0,
          0,
          225,
          212,
          212,
          212,
          212,
          224,
          0,
          216,
          0,
          207,
          212,
          212,
          224
        ],
        [
          0,
          0,
          0,
          0,
          0,
          0,
          0,
          0,
          0,
          0,
          0,
          0,
          0,
          0,
          0,
          0,
          0,
          0,
          0,
          0,
          0,
          0,
          211,
          0,
          0,
          0,
          0,
          206,
          0,
          206,
          0,
          0,
          0,
          0,
          211
        ],
        [
          0,
          0,
          0,
          0,
          0,
          0,
          0,
          0,
          0,
          0,
          0,
          0,
          0,
          0,
          0,
          0,
          0,
          0,
          0,
          0,
          0,
          0,
          225,
          212,
          212,
          208,
          0,
          0,
          0,
          0,
          0,
          207,
          212,
          212,
          224
        ],
        [
          0,
          0,
          0,
          0,
          0,
          0,
          0,
          0,
          0,
          0,
          0,
          0,
          0,
          0,
          0,
          0,
          0,
          0,
          0,
          0,
          0,
          0,
          211,
          0,
          0,
          0,
          0,
          205,
          0,
          205,
          0,
          0,
          0,
          0,
          211
        ],
        [
          0,
          0,
          0,
          0,
          0,
          0,
          0,
          0,
          0,
          0,
          0,
          0,
          0,
          0,
          0,
          0,
          0,
          0,
          0,
          0,
          0,
          0,
          225,
          212,
          212,
          208,
          0,
          215,
          0,
          216,
          0,
          207,
          212,
          212,
          224
        ],
        [
          0,
          0,
          0,
          0,
          0,
          0,
          0,
          0,
          0,
          0,
          0,
          0,
          0,
          0,
          0,
          0,
          0,
          0,
          0,
          0,
          0,
          0,
          211,
          0,
          0,
          0,
          0,
          206,
          0,
          206,
          0,
          0,
          0,
          0,
          211
        ],
        [
          0,
          0,
          0,
          0,
          0,
          0,
          0,
          0,
          0,
          0,
          0,
          0,
          0,
          0,
          0,
          0,
          0,
          0,
          0,
          0,
          0,
          0,
          225,
          212,
          212,
          208,
          0,
          0,
          0,
          0,
          0,
          207,
          212,
          212,
          224
        ],
        [
          0,
          0,
          0,
          0,
          0,
          0,
          0,
          0,
          0,
          0,
          0,
          0,
          0,
          0,
          0,
          0,
          0,
          0,
          0,
          0,
          0,
          0,
          211,
          0,
          0,
          0,
          0,
          205,
          0,
          205,
          0,
          0,
          0,
          0,
          211
        ],
        [
          0,
          0,
          0,
          0,
          0,
          0,
          0,
          0,
          0,
          0,
          0,
          0,
          0,
          0,
          0,
          0,
          0,
          0,
          0,
          0,
          0,
          0,
          225,
          212,
          212,
          208,
          0,
          215,
          0,
          216,
          0,
          207,
          212,
          212,
          224
        ],
        [
          0,
          0,
          0,
          0,
          0,
          0,
          0,
          0,
          0,
          0,
          0,
          0,
          0,
          0,
          0,
          0,
          0,
          0,
          0,
          0,
          0,
          0,
          211,
          0,
          0,
          0,
          0,
          206,
          0,
          206,
          0,
          0,
          0,
          0,
          211
        ],
        [
          0,
          0,
          0,
          0,
          0,
          0,
          0,
          0,
          0,
          0,
          0,
          0,
          0,
          0,
          0,
          0,
          0,
          0,
          0,
          0,
          0,
          0,
          225,
          212,
          212,
          208,
          0,
          0,
          0,
          0,
          0,
          207,
          212,
          212,
          224
        ],
        [
          0,
          0,
          0,
          0,
          0,
          0,
          0,
          0,
          0,
          0,
          0,
          0,
          0,
          0,
          0,
          0,
          0,
          0,
          0,
          0,
          0,
          0,
          211,
          0,
          0,
          0,
          0,
          205,
          0,
          205,
          0,
          0,
          0,
          0,
          211
        ],
        [
          0,
          0,
          0,
          0,
          0,
          0,
          0,
          0,
          0,
          0,
          0,
          0,
          0,
          0,
          0,
          0,
          0,
          0,
          0,
          0,
          0,
          0,
          225,
          212,
          212,
          212,
          212,
          224,
          0,
          216,
          0,
          207,
          212,
          212,
          224
        ],
        [
          0,
          0,
          0,
          0,
          0,
          0,
          0,
          0,
          0,
          0,
          0,
          0,
          0,
          0,
          0,
          0,
          0,
          0,
          0,
          0,
          0,
          0,
          211,
          125,
          121,
          121,
          126,
          206,
          0,
          206,
          0,
          0,
          0,
          0,
          211
        ],
        [
          0,
          0,
          0,
          0,
          0,
          0,
          0,
          0,
          0,
          0,
          0,
          0,
          0,
          0,
          0,
          0,
          0,
          0,
          0,
          0,
          0,
          0,
          211,
          123,
          21,
          22,
          174,
          121,
          0,
          0,
          0,
          207,
          212,
          212,
          224
        ],
        [
          0,
          0,
          0,
          0,
          0,
          0,
          0,
          0,
          0,
          0,
          0,
          0,
          0,
          0,
          0,
          0,
          0,
          0,
          0,
          0,
          0,
          0,
          211,
          123,
          0,
          0,
          171,
          122,
          0,
          205,
          0,
          0,
          0,
          0,
          211
        ],
        [
          0,
          0,
          0,
          0,
          0,
          0,
          0,
          0,
          0,
          0,
          0,
          0,
          0,
          0,
          0,
          0,
          0,
          0,
          0,
          0,
          0,
          0,
          211,
          123,
          23,
          24,
          124,
          205,
          0,
          216,
          0,
          207,
          212,
          212,
          224
        ],
        [
          0,
          0,
          0,
          0,
          0,
          0,
          0,
          0,
          0,
          0,
          0,
          0,
          0,
          0,
          0,
          0,
          0,
          0,
          0,
          0,
          0,
          0,
          211,
          127,
          122,
          122,
          128,
          211,
          0,
          206,
          0,
          0,
          0,
          0,
          211
        ],
        [
          0,
          0,
          0,
          0,
          0,
          0,
          0,
          0,
          0,
          0,
          0,
          0,
          0,
          0,
          201,
          212,
          212,
          214,
          212,
          212,
          212,
          212,
          222,
          212,
          212,
          212,
          212,
          224,
          0,
          0,
          0,
          207,
          212,
          212,
          224
        ],
        [
          0,
          0,
          0,
          0,
          0,
          0,
          0,
          0,
          0,
          0,
          0,
          0,
          0,
          0,
          211,
          0,
          0,
          0,
          0,
          0,
          0,
          0,
          0,
          0,
          0,
          0,
          0,
          206,
          0,
          205,
          0,
          0,
          0,
          0,
          211
        ],
        [
          201,
          212,
          212,
          212,
          212,
          202,
          0,
          0,
          0,
          0,
          0,
          0,
          0,
          0,
          211,
          60,
          1,
          205,
          0,
          207,
          212,
          212,
          212,
          212,
          212,
          208,
          0,
          0,
          0,
          216,
          0,
          207,
          212,
          212,
          224
        ],
        [
          211,
          0,
          0,
          0,
          0,
          211,
          0,
          0,
          0,
          0,
          0,
          0,
          0,
          0,
          211,
          0,
          0,
          211,
          0,
          0,
          0,
          0,
          0,
          0,
          0,
          0,
          0,
          205,
          0,
          206,
          0,
          0,
          0,
          0,
          211
        ],
        [
          211,
          0,
          201,
          202,
          0,
          243,
          212,
          212,
          212,
          212,
          212,
          212,
          212,
          212,
          204,
          0,
          0,
          203,
          208,
          0,
          207,
          208,
          0,
          207,
          208,
          0,
          207,
          204,
          0,
          0,
          0,
          207,
          212,
          212,
          224
        ],
        [
          211,
          0,
          225,
          224,
          0,
          0,
          0,
          0,
          0,
          0,
          0,
          0,
          0,
          0,
          0,
          0,
          0,
          0,
          0,
          0,
          0,
          0,
          0,
          0,
          0,
          0,
          0,
          0,
          0,
          205,
          0,
          0,
          0,
          0,
          211
        ],
        [
          211,
          0,
          225,
          224,
          0,
          207,
          208,
          0,
          207,
          223,
          208,
          0,
          207,
          214,
          208,
          0,
          207,
          214,
          208,
          0,
          207,
          214,
          208,
          0,
          207,
          214,
          208,
          0,
          207,
          254,
          0,
          207,
          212,
          212,
          224
        ],
        [
          211,
          0,
          225,
          224,
          0,
          0,
          0,
          0,
          0,
          211,
          0,
          0,
          0,
          0,
          0,
          0,
          0,
          0,
          0,
          0,
          0,
          0,
          0,
          0,
          0,
          0,
          0,
          0,
          0,
          0,
          0,
          0,
          0,
          0,
          211
        ],
        [
          211,
          0,
          225,
          221,
          223,
          223,
          223,
          202,
          0,
          211,
          0,
          205,
          0,
          205,
          0,
          205,
          0,
          205,
          0,
          205,
          0,
          205,
          0,
          205,
          0,
          205,
          0,
          205,
          0,
          205,
          0,
          0,
          0,
          207,
          224
        ],
        [
          211,
          0,
          203,
          222,
          222,
          222,
          222,
          204,
          0,
          211,
          0,
          211,
          0,
          211,
          0,
          211,
          0,
          211,
          0,
          211,
          0,
          211,
          0,
          211,
          0,
          211,
          0,
          211,
          0,
          211,
          0,
          205,
          32,
          0,
          211
        ],
        [
          211,
          32,
          0,
          0,
          0,
          0,
          0,
          0,
          0,
          211,
          0,
          211,
          0,
          211,
          0,
          211,
          0,
          211,
          0,
          211,
          0,
          211,
          0,
          211,
          0,
          211,
          0,
          211,
          0,
          211,
          0,
          211,
          0,
          0,
          211
        ],
        [
          203,
          212,
          212,
          212,
          212,
          212,
          212,
          212,
          212,
          222,
          212,
          222,
          212,
          222,
          212,
          222,
          212,
          222,
          212,
          222,
          212,
          222,
          212,
          222,
          212,
          222,
          212,
          222,
          212,
          222,
          212,
          222,
          212,
          212,
          204
        ]
      ]
    },
    {
      "id": 3,
      "name": "Zlin 4 Office Maze",
      "linktag": "zlinfourmaze",
      "mazeArray": [
        [
          201,
          212,
          212,
          212,
          212,
          212,
          212,
          212,
          223,
          212,
          223,
          223,
          212,
          223,
          212,
          223,
          212,
          223,
          212,
          223,
          212,
          212,
          223,
          212,
          223,
          212,
          223,
          212,
          223,
          212,
          223,
          212,
          212,
          223,
          212,
          223,
          212,
          223,
          212,
          212,
          223,
          212,
          202
        ],
        [
          211,
          31,
          31,
          31,
          31,
          31,
          31,
          31,
          211,
          31,
          225,
          224,
          31,
          211,
          31,
          211,
          31,
          211,
          31,
          211,
          31,
          31,
          211,
          31,
          211,
          31,
          211,
          31,
          211,
          31,
          211,
          31,
          31,
          211,
          31,
          211,
          31,
          211,
          31,
          31,
          211,
          31,
          211
        ],
        [
          211,
          31,
          32,
          0,
          0,
          0,
          0,
          31,
          211,
          31,
          225,
          224,
          31,
          211,
          31,
          211,
          31,
          211,
          31,
          211,
          31,
          31,
          211,
          31,
          211,
          31,
          211,
          31,
          211,
          31,
          211,
          31,
          31,
          211,
          31,
          211,
          31,
          211,
          31,
          31,
          211,
          31,
          211
        ],
        [
          211,
          31,
          0,
          0,
          0,
          0,
          0,
          31,
          211,
          31,
          225,
          224,
          31,
          211,
          31,
          211,
          31,
          211,
          31,
          206,
          31,
          31,
          211,
          31,
          211,
          31,
          211,
          31,
          211,
          31,
          211,
          31,
          31,
          211,
          31,
          211,
          31,
          211,
          31,
          31,
          211,
          31,
          211
        ],
        [
          211,
          31,
          0,
          0,
          0,
          0,
          0,
          31,
          211,
          31,
          203,
          204,
          31,
          211,
          31,
          211,
          31,
          211,
          31,
          31,
          31,
          31,
          211,
          31,
          211,
          31,
          211,
          31,
          211,
          31,
          211,
          31,
          31,
          211,
          31,
          211,
          31,
          211,
          31,
          31,
          211,
          31,
          211
        ],
        [
          211,
          31,
          0,
          0,
          0,
          0,
          0,
          31,
          211,
          31,
          0,
          0,
          31,
          211,
          31,
          206,
          31,
          211,
          31,
          0,
          0,
          31,
          206,
          31,
          211,
          31,
          206,
          31,
          211,
          31,
          206,
          31,
          31,
          206,
          31,
          211,
          31,
          206,
          31,
          31,
          206,
          31,
          211
        ],
        [
          211,
          31,
          31,
          31,
          31,
          31,
          31,
          31,
          211,
          31,
          31,
          31,
          31,
          211,
          31,
          31,
          31,
          211,
          31,
          0,
          0,
          31,
          31,
          31,
          211,
          31,
          31,
          31,
          211,
          31,
          31,
          31,
          31,
          31,
          31,
          211,
          31,
          31,
          31,
          31,
          31,
          31,
          211
        ],
        [
          225,
          212,
          212,
          212,
          212,
          214,
          208,
          31,
          247,
          208,
          31,
          207,
          212,
          222,
          212,
          208,
          31,
          239,
          31,
          207,
          212,
          212,
          212,
          212,
          248,
          31,
          207,
          212,
          222,
          208,
          31,
          207,
          212,
          212,
          212,
          222,
          208,
          31,
          207,
          212,
          212,
          212,
          224
        ],
        [
          211,
          31,
          31,
          31,
          31,
          31,
          0,
          0,
          0,
          0,
          0,
          0,
          0,
          0,
          0,
          0,
          0,
          0,
          0,
          0,
          0,
          0,
          0,
          0,
          0,
          0,
          0,
          0,
          0,
          0,
          0,
          0,
          0,
          0,
          0,
          0,
          0,
          0,
          0,
          0,
          0,
          0,
          211
        ],
        [
          225,
          212,
          212,
          208,
          31,
          205,
          0,
          0,
          0,
          0,
          0,
          0,
          0,
          201,
          212,
          208,
          31,
          207,
          223,
          212,
          212,
          208,
          31,
          207,
          202,
          0,
          0,
          0,
          0,
          0,
          0,
          0,
          0,
          0,
          0,
          0,
          0,
          207,
          212,
          212,
          212,
          212,
          224
        ],
        [
          211,
          31,
          31,
          31,
          31,
          211,
          0,
          0,
          0,
          201,
          212,
          208,
          0,
          215,
          31,
          31,
          31,
          31,
          211,
          31,
          31,
          31,
          31,
          31,
          211,
          0,
          0,
          0,
          0,
          31,
          31,
          31,
          0,
          0,
          0,
          0,
          174,
          121,
          121,
          121,
          121,
          126,
          211
        ],
        [
          225,
          212,
          212,
          212,
          212,
          224,
          0,
          0,
          201,
          204,
          0,
          0,
          0,
          211,
          31,
          0,
          0,
          31,
          211,
          31,
          0,
          0,
          0,
          31,
          211,
          0,
          0,
          0,
          0,
          31,
          32,
          31,
          0,
          0,
          0,
          0,
          172,
          0,
          21,
          0,
          23,
          124,
          211
        ],
        [
          211,
          31,
          31,
          31,
          31,
          211,
          0,
          0,
          211,
          0,
          0,
          0,
          0,
          211,
          31,
          0,
          0,
          31,
          211,
          31,
          0,
          0,
          0,
          31,
          211,
          0,
          0,
          0,
          0,
          31,
          31,
          31,
          0,
          0,
          0,
          205,
          123,
          0,
          22,
          0,
          24,
          124,
          211
        ],
        [
          225,
          212,
          212,
          208,
          31,
          211,
          0,
          0,
          211,
          0,
          0,
          0,
          0,
          211,
          31,
          31,
          31,
          31,
          211,
          31,
          31,
          31,
          31,
          31,
          211,
          0,
          0,
          0,
          0,
          0,
          0,
          0,
          0,
          0,
          0,
          211,
          127,
          122,
          122,
          122,
          122,
          128,
          211
        ],
        [
          211,
          31,
          31,
          31,
          31,
          211,
          0,
          201,
          204,
          0,
          1,
          0,
          0,
          225,
          212,
          212,
          212,
          212,
          222,
          212,
          212,
          212,
          212,
          212,
          222,
          212,
          212,
          212,
          212,
          212,
          212,
          212,
          212,
          212,
          212,
          222,
          212,
          212,
          212,
          212,
          212,
          212,
          204
        ],
        [225, 212, 212, 208, 31, 206, 0, 211, 0, 0, 0, 0, 0, 211],
        [211, 31, 31, 31, 31, 31, 0, 211, 0, 0, 60, 0, 0, 211],
        [225, 212, 212, 212, 212, 237, 0, 211, 0, 0, 0, 0, 0, 211],
        [211, 31, 31, 31, 31, 31, 0, 225, 212, 212, 212, 212, 212, 224],
        [225, 212, 212, 208, 31, 205, 0, 206, 31, 31, 31, 31, 31, 211],
        [211, 31, 31, 31, 31, 211, 0, 31, 31, 0, 0, 0, 31, 211],
        [225, 212, 212, 212, 212, 224, 0, 205, 31, 31, 31, 31, 31, 211],
        [211, 31, 31, 31, 31, 211, 0, 225, 212, 212, 212, 212, 212, 224],
        [225, 212, 212, 208, 31, 211, 0, 206, 31, 31, 31, 31, 31, 211],
        [211, 31, 31, 31, 31, 211, 0, 31, 31, 0, 0, 31, 31, 211],
        [225, 212, 212, 208, 31, 206, 0, 205, 31, 31, 31, 31, 32, 211],
        [211, 31, 31, 31, 31, 31, 0, 225, 212, 212, 212, 212, 212, 204],
        [225, 212, 212, 212, 212, 237, 0, 211],
        [211, 31, 31, 31, 31, 31, 0, 211],
        [225, 212, 212, 208, 31, 205, 0, 211],
        [211, 31, 31, 31, 31, 211, 0, 211],
        [211, 31, 31, 31, 31, 211, 0, 211],
        [225, 212, 212, 208, 31, 211, 0, 211],
        [211, 31, 31, 31, 31, 211, 0, 211],
        [203, 212, 212, 212, 212, 222, 212, 204]
      ]
    }
  ]
}
